^C:\USERS\SEAN GARAY\SOURCE\REPOS\BASPROG2 POKESIM\BASPROG2 POKESIM\MAIN.CPP|C:\USERS\SEAN GARAY\SOURCE\REPOS\BASPROG2 POKESIM\BASPROG2 POKESIM\PLAYER.CPP|C:\USERS\SEAN GARAY\SOURCE\REPOS\BASPROG2 POKESIM\BASPROG2 POKESIM\POKEMON.CPP
C:\USERS\SEAN GARAY\DOCUMENTS\BASPROG2FINALS\FINALSPOKESIM\PROJECT1\DEBUG\VC141.PDB
C:\USERS\SEAN GARAY\DOCUMENTS\BASPROG2FINALS\FINALSPOKESIM\PROJECT1\DEBUG\VC141.IDB
C:\USERS\SEAN GARAY\DOCUMENTS\BASPROG2FINALS\FINALSPOKESIM\PROJECT1\DEBUG\POKEMON.OBJ
C:\USERS\SEAN GARAY\DOCUMENTS\BASPROG2FINALS\FINALSPOKESIM\PROJECT1\DEBUG\PLAYER.OBJ
C:\USERS\SEAN GARAY\DOCUMENTS\BASPROG2FINALS\FINALSPOKESIM\PROJECT1\DEBUG\MAIN.OBJ
^C:\USERS\SEAN GARAY\SOURCE\REPOS\BASPROG2 POKESIM\BASPROG2 POKESIM\MAIN.CPP
C:\USERS\SEAN GARAY\DOCUMENTS\BASPROG2FINALS\FINALSPOKESIM\PROJECT1\DEBUG\VC141.PDB
^C:\USERS\SEAN GARAY\SOURCE\REPOS\BASPROG2 POKESIM\BASPROG2 POKESIM\PLAYER.CPP
C:\USERS\SEAN GARAY\DOCUMENTS\BASPROG2FINALS\FINALSPOKESIM\PROJECT1\DEBUG\VC141.PDB
^C:\USERS\SEAN GARAY\SOURCE\REPOS\BASPROG2 POKESIM\BASPROG2 POKESIM\POKEMON.CPP
C:\USERS\SEAN GARAY\DOCUMENTS\BASPROG2FINALS\FINALSPOKESIM\PROJECT1\DEBUG\VC141.PDB
